"{
  "count": 26,
  "pageIndex": 1,
  "pageSize": 25,
  "pageCount": 2,
  "items": [
    {
      "$ref": "http://sports.core.api.espn.com/v2/sports/soccer/leagues/eng.1/seasons/2026?lang=en&region=us"
    },
    {
      "$ref": "http://sports.core.api.espn.com/v2/sports/soccer/leagues/eng.1/seasons/2025?lang=en&region=us"
    },
    {
      "$ref": "http://sports.core.api.espn.com/v2/sports/soccer/leagues/eng.1/seasons/2024?lang=en&region=us"
    },
    {
      "$ref": "http://sports.core.api.espn.com/v2/sports/soccer/leagues/eng.1/seasons/2023?lang=en&region=us"
    },
    {
      "$ref": "http://sports.core.api.espn.com/v2/sports/soccer/leagues/eng.1/seasons/2022?lang=en&region=us"
    },
    {
      "$ref": "http://sports.core.api.espn.com/v2/sports/soccer/leagues/eng.1/seasons/2021?lang=en&region=us"
    },
    {
      "$ref": "http://sports.core.api.espn.com/v2/sports/soccer/leagues/eng.1/seasons/2020?lang=en&region=us"
    },
    {
      "$ref": "http://sports.core.api.espn.com/v2/sports/soccer/leagues/eng.1/seasons/2019?lang=en&region=us"
    },
    {
      "$ref": "http://sports.core.api.espn.com/v2/sports/soccer/leagues/eng.1/seasons/2018?lang=en&region=us"
    },
    {
      "$ref": "http://sports.core.api.espn.com/v2/sports/soccer/leagues/eng.1/seasons/2017?lang=en&region=us"
    },
    {
      "$ref": "http://sports.core.api.espn.com/v2/sports/soccer/leagues/eng.1/seasons/2016?lang=en&region=us"
    },
    {
      "$ref": "http://sports.core.api.espn.com/v2/sports/soccer/leagues/eng.1/seasons/2015?lang=en&region=us"
    },
    {
      "$ref": "http://sports.core.api.espn.com/v2/sports/soccer/leagues/eng.1/seasons/2014?lang=en&region=us"
    },
    {
      "$ref": "http://sports.core.api.espn.com/v2/sports/soccer/leagues/eng.1/seasons/2013?lang=en&region=us"
    },
    {
      "$ref": "http://sports.core.api.espn.com/v2/sports/soccer/leagues/eng.1/seasons/2012?lang=en&region=us"
    },
    {
      "$ref": "http://sports.core.api.espn.com/v2/sports/soccer/leagues/eng.1/seasons/2011?lang=en&region=us"
    },
    {
      "$ref": "http://sports.core.api.espn.com/v2/sports/soccer/leagues/eng.1/seasons/2010?lang=en&region=us"
    },
    {
      "$ref": "http://sports.core.api.espn.com/v2/sports/soccer/leagues/eng.1/seasons/2009?lang=en&region=us"
    },
    {
      "$ref": "http://sports.core.api.espn.com/v2/sports/soccer/leagues/eng.1/seasons/2008?lang=en&region=us"
    },
    {
      "$ref": "http://sports.core.api.espn.com/v2/sports/soccer/leagues/eng.1/seasons/2007?lang=en&region=us"
    },
    {
      "$ref": "http://sports.core.api.espn.com/v2/sports/soccer/leagues/eng.1/seasons/2006?lang=en&region=us"
    },
    {
      "$ref": "http://sports.core.api.espn.com/v2/sports/soccer/leagues/eng.1/seasons/2005?lang=en&region=us"
    },
    {
      "$ref": "http://sports.core.api.espn.com/v2/sports/soccer/leagues/eng.1/seasons/2004?lang=en&region=us"
    },
    {
      "$ref": "http://sports.core.api.espn.com/v2/sports/soccer/leagues/eng.1/seasons/2003?lang=en&region=us"
    },
    {
      "$ref": "http://sports.core.api.espn.com/v2/sports/soccer/leagues/eng.1/seasons/2002?lang=en&region=us"
    }
  ]
}


و http://sports.core.api.espn.com/v2/sports/soccer/leagues/eng.1/seasons/2025?lang=en&region=us



{
  "$ref": "http://sports.core.api.espn.com/v2/sports/soccer/leagues/eng.1/seasons/2025?lang=en&region=us",
  "year": 2025,
  "startDate": "2025-06-01T04:00Z",
  "endDate": "2026-06-01T03:59Z",
  "displayName": "2025-26 English Premier League",
  "shortDisplayName": "2025-26 English Premier League",
  "abbreviation": "2025-26",
  "type": {
    "$ref": "http://sports.core.api.espn.com/v2/sports/soccer/leagues/eng.1/seasons/2025/types/1?lang=en&region=us",
    "id": "1",
    "type": 13481,
    "name": "2025-26 English Premier League",
    "abbreviation": "2025-26 English Premier League",
    "startDate": "2025-06-01T04:00Z",
    "endDate": "2026-06-01T03:59Z",
    "hasGroups": false,
    "hasStandings": true,
    "hasLiveStandings": false,
    "hasLegs": false,
    "hasStats": true,
    "isFinal": false,
    "isThirdPlace": false,
    "groups": {
      "$ref": "http://sports.core.api.espn.com/v2/sports/soccer/leagues/eng.1/seasons/2025/types/1/groups?lang=en&region=us"
    },
    "slug": "2025-26-english-premier-league"
  },
  "types": {
    "$ref": "http://sports.core.api.espn.com/v2/sports/soccer/leagues/eng.1/seasons/2025/types?lang=en&region=us",
    "count": 1,
    "pageIndex": 1,
    "pageSize": 1,
    "pageCount": 1,
    "items": [
      {
        "$ref": "http://sports.core.api.espn.com/v2/sports/soccer/leagues/eng.1/seasons/2025/types/1?lang=en&region=us",
        "id": "1",
        "type": 13481,
        "name": "2025-26 English Premier League",
        "abbreviation": "2025-26 English Premier League",
        "startDate": "2025-06-01T04:00Z",
        "endDate": "2026-06-01T03:59Z",
        "hasGroups": false,
        "hasStandings": true,
        "hasLiveStandings": false,
        "hasLegs": false,
        "hasStats": true,
        "isFinal": false,
        "isThirdPlace": false,
        "groups": {
          "$ref": "http://sports.core.api.espn.com/v2/sports/soccer/leagues/eng.1/seasons/2025/types/1/groups?lang=en&region=us"
        },
        "slug": "2025-26-english-premier-league"
      }
    ]
  },
  "athletes": {
    "$ref": "http://sports.core.api.espn.com/v2/sports/soccer/leagues/eng.1/seasons/2025/athletes?lang=en&region=us"
  }
}