{
  "count": 219,
  "pageIndex": 1,
  "pageSize": 25,
  "pageCount": 9,
  "items": [
    {
      "$ref": "http://sports.core.api.espn.com/v2/sports/soccer/leagues/fifa.world?lang=en&region=us"
    },
    {
      "$ref": "http://sports.core.api.espn.com/v2/sports/soccer/leagues/fifa.wwc?lang=en&region=us"
    },
    {
      "$ref": "http://sports.core.api.espn.com/v2/sports/soccer/leagues/uefa.champions?lang=en&region=us"
    },
    {
      "$ref": "http://sports.core.api.espn.com/v2/sports/soccer/leagues/eng.1?lang=en&region=us"
    },
    {
      "$ref": "http://sports.core.api.espn.com/v2/sports/soccer/leagues/eng.fa?lang=en&region=us"
    },
    {
      "$ref": "http://sports.core.api.espn.com/v2/sports/soccer/leagues/eng.league_cup?lang=en&region=us"
    },
    {
      "$ref": "http://sports.core.api.espn.com/v2/sports/soccer/leagues/esp.1?lang=en&region=us"
    },
    {
      "$ref": "http://sports.core.api.espn.com/v2/sports/soccer/leagues/esp.super_cup?lang=en&region=us"
    },
    {
      "$ref": "http://sports.core.api.espn.com/v2/sports/soccer/leagues/esp.copa_del_rey?lang=en&region=us"
    },
    {
      "$ref": "http://sports.core.api.espn.com/v2/sports/soccer/leagues/ger.1?lang=en&region=us"
    },
    {
      "$ref": "http://sports.core.api.espn.com/v2/sports/soccer/leagues/ger.playoff.relegation?lang=en&region=us"
    },
    {
      "$ref": "http://sports.core.api.espn.com/v2/sports/soccer/leagues/ger.dfb_pokal?lang=en&region=us"
    },
    {
      "$ref": "http://sports.core.api.espn.com/v2/sports/soccer/leagues/usa.1?lang=en&region=us"
    },
    {
      "$ref": "http://sports.core.api.espn.com/v2/sports/soccer/leagues/concacaf.leagues.cup?lang=en&region=us"
    },
    {
      "$ref": "http://sports.core.api.espn.com/v2/sports/soccer/leagues/campeones.cup?lang=en&region=us"
    },
    {
      "$ref": "http://sports.core.api.espn.com/v2/sports/soccer/leagues/fifa.shebelieves?lang=en&region=us"
    },
    {
      "$ref": "http://sports.core.api.espn.com/v2/sports/soccer/leagues/fifa.w.champions_cup?lang=en&region=us"
    },
    {
      "$ref": "http://sports.core.api.espn.com/v2/sports/soccer/leagues/uefa.wchampions?lang=en&region=us"
    },
    {
      "$ref": "http://sports.core.api.espn.com/v2/sports/soccer/leagues/usa.nwsl?lang=en&region=us"
    },
    {
      "$ref": "http://sports.core.api.espn.com/v2/sports/soccer/leagues/usa.nwsl.cup?lang=en&region=us"
    },
    {
      "$ref": "http://sports.core.api.espn.com/v2/sports/soccer/leagues/uefa.europa?lang=en&region=us"
    },
    {
      "$ref": "http://sports.core.api.espn.com/v2/sports/soccer/leagues/uefa.europa.conf?lang=en&region=us"
    },
    {
      "$ref": "http://sports.core.api.espn.com/v2/sports/soccer/leagues/fifa.friendly?lang=en&region=us"
    },
    {
      "$ref": "http://sports.core.api.espn.com/v2/sports/soccer/leagues/mex.1?lang=en&region=us"
    },
    {
      "$ref": "http://sports.core.api.espn.com/v2/sports/soccer/leagues/ita.1?lang=en&region=us"
    }
  ]
}